{
    "mappings": {
        "dynamic": false,
        "properties": {
            "location": {
                "properties": {
                    "opening_times": {
                        "properties": {
                            "friday": {
                                "type": "text"
                            },
                            "monday": {
                                "type": "text"
                            },
                            "tuesday": {
                                "type": "text"
                            },
                            "sunday": {
                                "type": "text"
                            },
                            "wednesday": {
                                "type": "text"
                            },
                            "special": {
                                "type": "text"
                            },
                            "saturday": {
                                "type": "text"
                            },
                            "thursday": {
                                "type": "text"
                            }
                        }
                    },
                    "transit": {
                        "properties": {
                            "sbahn": {
                                "type": "text"
                            },
                            "tram": {
                                "type": "text"
                            },
                            "ubahn": {
                                "type": "text"
                            },
                            "bus": {
                                "type": "text"
                            }
                        }
                    },
                    "services": {
                        "type": "nested",
                        "properties": {
                            "contact": {
                                "properties": {
                                    "email": {
                                        "type": "text"
                                    },
                                    "phone": {
                                        "type": "text"
                                    },
                                    "fax": {
                                        "type": "text"
                                    },
                                    "name": {
                                        "type": "text"
                                    }
                                }
                            },
                            "service": {
                                "type": "keyword"
                            },
                            "appointment": {
                                "properties": {
                                    "link": {
                                        "type": "text"
                                    },
                                    "external": {
                                        "type": "boolean"
                                    },
                                    "allowed": {
                                        "type": "boolean"
                                    },
                                    "slots": {
                                        "type": "keyword"
                                    }
                                }
                            },
                            "hint": {
                                "type": "text"
                            }
                        }
                    },
                    "meta": {
                        "properties": {
                            "lastupdate": {
                                "type": "date",
                                "format": "dateOptionalTime"
                            },
                            "locale": {
                                "type": "keyword"
                            },
                            "keywords": {
                                "type": "keyword"
                            },
                            "url": {
                                "type": "text"
                            }
                        }
                    },
                    "address": {
                        "properties": {
                            "city": {
                                "type": "text"
                            },
                            "postal_code": {
                                "type": "text"
                            },
                            "house_number": {
                                "type": "text"
                            },
                            "street": {
                                "type": "text"
                            }
                        }
                    },
                    "payment": {
                        "type": "text"
                    },
                    "paymentcode": {
                        "type": "keyword"
                    },
                    "geo": {
                        "type": "geo_point"
                    },
                    "accessibility": {
                        "properties": {
                            "parking": {
                                "type": "text"
                            },
                            "note": {
                                "type": "text"
                            },
                            "elevator": {
                                "type": "text"
                            },
                            "access": {
                                "type": "text"
                            },
                            "wc": {
                                "type": "text"
                            }
                        }
                    },
                    "appointment_note": {
                        "properties": {
                            "note": {
                                "type": "text"
                            }
                        }
                    },
                    "office": {
                        "type": "keyword"
                    },
                    "category": {
                        "properties": {
                            "identifier": {
                                "type": "keyword"
                            },
                            "name": {
                                "type": "keyword"
                            }
                        }
                    },
                    "id": {
                        "type": "integer"
                    },
                    "authority": {
                        "properties": {
                            "id": {
                                "type": "keyword"
                            },
                            "name": {
                                "type": "text",
                                "fields": {
                                    "sort": {
                                        "type": "keyword"
                                    }
                                }
                            }
                        }
                    },
                    "note": {
                        "type": "text"
                    },
                    "name": {
                        "type": "text",
                        "analyzer": "query_analyzer",
                        "fields": {
                            "az": {
                                "type": "keyword",
                                "normalizer": "keyword_normalizer"
                            },
                            "sort": {
                                "type": "keyword",
                                "normalizer": "keyword_normalizer"
                            }
                        }
                    },
                    "contact": {
                        "properties": {
                            "phone": {
                                "type": "text"
                            },
                            "email": {
                                "type": "text"
                            },
                            "webinfo": {
                                "type": "text"
                            },
                            "fax": {
                                "type": "text"
                            }
                        }
                    }
                }
            },
            "authority": {
                "properties": {
                    "meta": {
                        "properties": {
                            "lastupdate": {
                                "type": "date",
                                "format": "dateOptionalTime"
                            },
                            "locale": {
                                "type": "keyword"
                            },
                            "url": {
                                "type": "text"
                            }
                        }
                    },
                    "contact": {
                        "properties": {
                            "webinfo": {
                                "type": "text"
                            }
                        }
                    },
                    "name": {
                        "type": "text",
                        "analyzer": "query_analyzer",
                        "fields": {
                            "az": {
                                "type": "keyword"
                            },
                            "sort": {
                                "type": "keyword"
                            }
                        }
                    },
                    "locations": {
                        "type": "nested",
                        "properties": {
                            "name": {
                                "type": "text",
                                "fields": {
                                    "sort": {
                                        "type": "keyword"
                                    }
                                }
                            },
                            "location": {
                                "type": "keyword"
                            },
                            "office": {
                                "type": "keyword"
                            }
                        }
                    },
                    "id": {
                        "type": "integer"
                    },
                    "relation": {
                        "properties": {
                            "navi": {
                                "type": "text"
                            }
                        }
                    }
                }
            },
            "service": {
                "properties": {
                    "id": {
                        "type": "integer"
                    },
                    "process_time": {
                        "type": "text"
                    },
                    "legal": {
                        "properties": {
                            "link": {
                                "type": "text"
                            },
                            "description": {
                                "type": "text"
                            },
                            "name": {
                                "type": "text"
                            }
                        }
                    },
                    "locations": {
                        "type": "nested",
                        "properties": {
                            "location": {
                                "type": "keyword"
                            },
                            "office": {
                                "type": "keyword"
                            }
                        }
                    },
                    "publications": {
                        "properties": {
                            "name": {
                                "type": "text"
                            },
                            "link": {
                                "type": "text"
                            },
                            "description": {
                                "type": "text"
                            }
                        }
                    },
                    "name": {
                        "type": "text",
                        "analyzer": "query_analyzer",
                        "fields": {
                            "az": {
                                "type": "keyword",
                                "normalizer": "keyword_normalizer"
                            },
                            "sort": {
                                "type": "keyword",
                                "normalizer": "keyword_normalizer"
                            }
                        }
                    },
                    "meta": {
                        "properties": {
                            "lastupdate": {
                                "type": "date",
                                "format": "dateOptionalTime"
                            },
                            "locale": {
                                "type": "keyword"
                            },
                            "keywords": {
                                "type": "keyword",
                                "normalizer": "keyword_normalizer"
                            },
                            "url": {
                                "type": "text"
                            }
                        }
                    },
                    "onlineprocessing": {
                        "properties": {
                            "link": {
                                "type": "text"
                            },
                            "description": {
                                "type": "text"
                            }
                        }
                    },
                    "responsibility": {
                        "type": "text"
                    }
                }
            },
            "topic": {
                "properties": {
                    "path": {
                        "type": "keyword"
                    },
                    "meta": {
                        "properties": {
                            "keywords": {
                                "type": "keyword"
                            },
                            "titles": {
                                "type": "text"
                            },
                            "locale": {
                                "type": "keyword"
                            }
                        }
                    },
                    "name": {
                        "type": "text",
                        "analyzer": "query_analyzer",
                        "fields": {
                            "az": {
                                "type": "keyword"
                            },
                            "sort": {
                                "type": "keyword"
                            }
                        }
                    },
                    "links": {
                        "type": "nested",
                        "properties": {
                            "highlight": {
                                "type": "text"
                            },
                            "meta": {
                                "properties": {
                                    "keywords": {
                                        "type": "keyword"
                                    },
                                    "titles": {
                                        "type": "text"
                                    }
                                }
                            },
                            "link": {
                                "type": "text"
                            },
                            "name": {
                                "type": "text",
                                "analyzer": "query_analyzer"
                            },
                            "rank": {
                                "type": "text"
                            }
                        }
                    },
                    "id": {
                        "type": "keyword"
                    },
                    "relation": {
                        "properties": {
                            "navi": {
                                "type": "text"
                            },
                            "root": {
                                "type": "keyword"
                            },
                            "rank": {
                                "type": "text"
                            },
                            "services": {
                                "type": "nested",
                                "properties": {
                                    "name": {
                                        "type": "text"
                                    },
                                    "id": {
                                        "type": "keyword"
                                    }
                                }
                            },
                            "childs": {
                                "properties": {
                                    "path": {
                                        "type": "text"
                                    },
                                    "name": {
                                        "type": "text"
                                    },
                                    "rank": {
                                        "type": "text"
                                    },
                                    "id": {
                                        "type": "keyword"
                                    }
                                }
                            },
                            "parents": {
                                "properties": {
                                    "path": {
                                        "type": "text"
                                    },
                                    "name": {
                                        "type": "text"
                                    },
                                    "rank": {
                                        "type": "text"
                                    },
                                    "id": {
                                        "type": "keyword"
                                    }
                                }
                            }
                        }
                    }
                }
            },
            "links": {
                "type": "nested",
                "properties": {
                    "highlight": {
                        "type": "text"
                    },
                    "meta": {
                        "properties": {
                            "keywords": {
                                "type": "keyword"
                            },
                            "titles": {
                                "type": "text"
                            }
                        }
                    },
                    "link": {
                        "type": "text"
                    },
                    "name": {
                        "type": "text",
                        "analyzer": "query_analyzer"
                    },
                    "hightlight": {
                        "type": "integer"
                    },
                    "rank": {
                        "type": "text"
                    }
                }
            }
        }
    },
    "settings": {
        "analysis": {
            "normalizer": {
                "keyword_normalizer": {
                    "type": "custom",
                    "filter": [
                        "lowercase",
                        "asciifolding"
                    ]
                }
            },
            "tokenizer": {
                "search_tokenizer": {
                    "type": "edge_ngram",
                    "min_gram": 1,
                    "max_gram": 300
                }
            },
            "analyzer": {
                "query_analyzer": {
                    "type": "custom",
                    "tokenizer": "search_tokenizer",
                    "filter": [
                        "lowercase",
                        "german_stemmer",
                        "length_filter"
                    ]
                },
                "default": {
                    "tokenizer": "standard",
                    "filter": [
                        "lowercase",
                        "german_stemmer"
                    ]
                }
            },
            "filter": {
                "german_stemmer": {
                    "type": "snowball",
                    "language": "German2"
                },
                "length_filter": {
                    "type": "length",
                    "min": 3
                }
            }
        },
        "number_of_shards": "1",
        "number_of_replicas": "1"
    }
}